/home/soren/Git/SDoWS/customer-api/customer-utilities/src/main/java/messaging/Event.java
/home/soren/Git/SDoWS/customer-api/customer-utilities/src/main/java/messaging/implementations/RabbitMqQueue.java
/home/soren/Git/SDoWS/customer-api/customer-utilities/src/main/java/messaging/MessageQueue.java
